[
    {
        "band": 31,
        "providers": [
            {
                "provider": {
                    "name": "EDZCOM",
                    "longName": "Edzcom",
                    "homePage": "https://www.edzcom.com/",
                    "backgroundColor": "#f6ea50",
                    "textColor": "black"
                },
                "frequency": {
                    "upLink": {
                        "start": 452.425,
                        "end": 456.925
                    },
                    "downLink": {
                        "start": 462.425,
                        "end": 466.925
                    }
                },
                "technology": [
                    "LTE"
                ],
                "source": [
                    {
                        "name": "Finnish Transport and Communications Agency - Traficom",
                        "url": "https://www.traficom.fi/en/communications/communications-networks/frequencies-and-license-holders-public-mobile-networks"
                    }
                ]
            }
        ]
    },
    {
        "band": 28,
        "providers": [
            {
                "provider": {
                    "name": "DNA",
                    "longName": "DNA FI",
                    "homePage": "https://www.dna.fi",
                    "backgroundColor": "#ff007d",
                    "textColor": "white"
                },
                "frequency": {
                    "arfcn": [
                        9260
                    ],
                    "upLink": {
                        "start": 703,
                        "end": 713
                    },
                    "downLink": {
                        "start": 758,
                        "end": 768
                    }
                },
                "valid": {
                    "start": "2017-02-01",
                    "end": "2033-12-31"
                },
                "technology": [
                    "LTE"
                ],
                "source": [
                    {
                        "name": "Finnish Transport and Communications Agency - Traficom",
                        "url": "https://www.traficom.fi/en/communications/communications-networks/frequencies-and-license-holders-public-mobile-networks"
                    }
                ]
            },
            {
                "provider": {
                    "name": "Elisa",
                    "longName": "Elisa",
                    "homePage": "https://www.elisa.fi",
                    "backgroundColor": "#0019af",
                    "textColor": "white"
                },
                "frequency": {
                    "upLink": {
                        "start": 713,
                        "end": 723
                    },
                    "downLink": {
                        "start": 768,
                        "end": 778
                    }
                },
                "technology": [
                    "LTE"
                ],
                "valid": {
                    "start": "2017-02-01",
                    "end": "2033-12-31"
                },
                "source": [
                    {
                        "name": "Finnish Transport and Communications Agency - Traficom",
                        "url": "https://www.traficom.fi/en/communications/communications-networks/frequencies-and-license-holders-public-mobile-networks"
                    }
                ]
            },
            {
                "provider": {
                    "name": "Telia",
                    "longName": "Telia FI",
                    "homePage": "https://www.telia.fi",
                    "backgroundColor": "#990ae3",
                    "textColor": "white"
                },
                "frequency": {
                    "upLink": {
                        "start": 723,
                        "end": 733
                    },
                    "downLink": {
                        "start": 778,
                        "end": 788
                    }
                },
                "technology": [
                    "LTE"
                ],
                "valid": {
                    "start": "2017-02-01",
                    "end": "2033-12-31"
                },
                "source": [
                    {
                        "name": "Finnish Transport and Communications Agency - Traficom",
                        "url": "https://www.traficom.fi/en/communications/communications-networks/frequencies-and-license-holders-public-mobile-networks"
                    }
                ]
            }
        ]
    },
    {
        "band": 20,
        "providers": [
            {
                "provider": {
                    "name": "DNA",
                    "longName": "DNA FI",
                    "homePage": "https://www.dna.fi",
                    "backgroundColor": "#ff007d",
                    "textColor": "white"
                },
                "frequency": {
                    "upLink": {
                        "start": 832,
                        "end": 842
                    },
                    "downLink": {
                        "start": 791,
                        "end": 801
                    }
                },
                "technology": [
                    "LTE"
                ],
                "source": [
                    {
                        "name": "Finnish Transport and Communications Agency - Traficom",
                        "url": "https://www.traficom.fi/en/communications/communications-networks/frequencies-and-license-holders-public-mobile-networks"
                    }
                ]
            },
            {
                "provider": {
                    "name": "Telia",
                    "longName": "Telia FI",
                    "homePage": "https://www.telia.fi",
                    "backgroundColor": "#990ae3",
                    "textColor": "white"
                },
                "frequency": {
                    "upLink": {
                        "start": 842,
                        "end": 852
                    },
                    "downLink": {
                        "start": 801,
                        "end": 811
                    }
                },
                "technology": [
                    "LTE"
                ],
                "source": [
                    {
                        "name": "Finnish Transport and Communications Agency - Traficom",
                        "url": "https://www.traficom.fi/en/communications/communications-networks/frequencies-and-license-holders-public-mobile-networks"
                    }
                ]
            },
            {
                "provider": {
                    "name": "Elisa",
                    "longName": "Elisa",
                    "homePage": "https://www.elisa.fi",
                    "backgroundColor": "#0019af",
                    "textColor": "white"
                },
                "frequency": {
                    "upLink": {
                        "start": 852,
                        "end": 862
                    },
                    "downLink": {
                        "start": 811,
                        "end": 821
                    }
                },
                "technology": [
                    "LTE"
                ],
                "source": [
                    {
                        "name": "Finnish Transport and Communications Agency - Traficom",
                        "url": "https://www.traficom.fi/en/communications/communications-networks/frequencies-and-license-holders-public-mobile-networks"
                    }
                ]
            }
        ]
    },
    {
        "band": 8,
        "providers": [
            {
                "provider": {
                    "name": "DNA",
                    "longName": "DNA FI",
                    "homePage": "https://www.dna.fi",
                    "backgroundColor": "#ff007d",
                    "textColor": "white"
                },
                "frequency": {
                    "upLink": {
                        "start": 880.100,
                        "end": 891.700
                    },
                    "downLink": {
                        "start": 925.100,
                        "end": 936.700
                    }
                },
                "technology": [
                    "GSM",
                    "UMTS"
                ],
                "source": [
                    {
                        "name": "Finnish Transport and Communications Agency - Traficom",
                        "url": "https://www.traficom.fi/en/communications/communications-networks/frequencies-and-license-holders-public-mobile-networks"
                    }
                ]
            },
            {
                "provider": {
                    "name": "Telia",
                    "longName": "Telia FI",
                    "homePage": "https://www.telia.fi",
                    "backgroundColor": "#990ae3",
                    "textColor": "white"
                },
                "frequency": {
                    "upLink": {
                        "start": 891.9,
                        "end": 903.3
                    },
                    "downLink": {
                        "start": 936.9,
                        "end": 948.3
                    }
                },
                "technology": [
                    "GSM",
                    "UMTS"
                ],
                "source": [
                    {
                        "name": "Finnish Transport and Communications Agency - Traficom",
                        "url": "https://www.traficom.fi/en/communications/communications-networks/frequencies-and-license-holders-public-mobile-networks"
                    }
                ]
            },
            {
                "provider": {
                    "name": "Elisa",
                    "longName": "Elisa",
                    "homePage": "https://www.elisa.fi",
                    "backgroundColor": "#0019af",
                    "textColor": "white"
                },
                "frequency": {
                    "upLink": {
                        "start": 903.500,
                        "end": 914.900
                    },
                    "downLink": {
                        "start": 948.500,
                        "end": 959.900
                    }
                },
                "technology": [
                    "GSM",
                    "UMTS"
                ],
                "source": [
                    {
                        "name": "Finnish Transport and Communications Agency - Traficom",
                        "url": "https://www.traficom.fi/en/communications/communications-networks/frequencies-and-license-holders-public-mobile-networks"
                    }
                ]
            }
        ]
    },
    {
        "band": 3,
        "providers": [
            {
                "provider": {
                    "name": "Telia",
                    "longName": "Telia FI",
                    "homePage": "https://www.telia.fi",
                    "backgroundColor": "#990ae3",
                    "textColor": "white"
                },
                "frequency": {
                    "upLink": {
                        "start": 1710.100,
                        "end": 1734.900
                    },
                    "downLink": {
                        "start": 1805.100,
                        "end": 1829.900
                    }
                },
                "technology": [
                    "GSM",
                    "LTE"
                ],
                "source": [
                    {
                        "name": "Finnish Transport and Communications Agency - Traficom",
                        "url": "https://www.traficom.fi/en/communications/communications-networks/frequencies-and-license-holders-public-mobile-networks"
                    }
                ]
            },
            {
                "provider": {
                    "name": "DNA",
                    "longName": "DNA FI",
                    "homePage": "https://www.dna.fi",
                    "backgroundColor": "#ff007d",
                    "textColor": "white"
                },
                "frequency": {
                    "upLink": {
                        "start": 1735.100,
                        "end": 1759.900
                    },
                    "downLink": {
                        "start": 1830.100,
                        "end": 1854.900
                    }
                },
                "technology": [
                    "GSM",
                    "LTE"
                ],
                "source": [
                    {
                        "name": "Finnish Transport and Communications Agency - Traficom",
                        "url": "https://www.traficom.fi/en/communications/communications-networks/frequencies-and-license-holders-public-mobile-networks"
                    }
                ]
            },
            {
                "provider": {
                    "name": "Elisa",
                    "longName": "Elisa",
                    "homePage": "https://www.elisa.fi",
                    "backgroundColor": "#0019af",
                    "textColor": "white"
                },
                "frequency": {
                    "upLink": {
                        "start": 1760.100,
                        "end": 1784.900
                    },
                    "downLink": {
                        "start": 1855.100,
                        "end": 1879.900
                    }
                },
                "technology": [
                    "GSM",
                    "LTE"
                ],
                "source": [
                    {
                        "name": "Finnish Transport and Communications Agency - Traficom",
                        "url": "https://www.traficom.fi/en/communications/communications-networks/frequencies-and-license-holders-public-mobile-networks"
                    }
                ]
            }
        ]
    },
    {
        "band": 1,
        "providers": [
            {
                "provider": {
                    "name": "Elisa",
                    "longName": "Elisa",
                    "homePage": "https://www.elisa.fi",
                    "backgroundColor": "#0019af",
                    "textColor": "white"
                },
                "frequency": {
                    "upLink": {
                        "start": 1920.300,
                        "end": 1940.100
                    },
                    "downLink": {
                        "start": 2110.300,
                        "end": 2130.100
                    }
                },
                "technology": [
                    "UMTS",
                    "LTE"
                ],
                "source": [
                    {
                        "name": "Finnish Transport and Communications Agency - Traficom",
                        "url": "https://www.traficom.fi/en/communications/communications-networks/frequencies-and-license-holders-public-mobile-networks"
                    }
                ]
            },
            {
                "provider": {
                    "name": "DNA",
                    "longName": "DNA FI",
                    "homePage": "https://www.dna.fi",
                    "backgroundColor": "#ff007d",
                    "textColor": "white"
                },
                "frequency": {
                    "upLink": {
                        "start": 1940.100,
                        "end": 1959.900
                    },
                    "downLink": {
                        "start": 2130.100,
                        "end": 2149.900
                    }
                },
                "technology": [
                    "UMTS",
                    "LTE"
                ],
                "source": [
                    {
                        "name": "Finnish Transport and Communications Agency - Traficom",
                        "url": "https://www.traficom.fi/en/communications/communications-networks/frequencies-and-license-holders-public-mobile-networks"
                    }
                ]
            },
            {
                "provider": {
                    "name": "Telia",
                    "longName": "Telia FI",
                    "homePage": "https://www.telia.fi",
                    "backgroundColor": "#990ae3",
                    "textColor": "white"
                },
                "frequency": {
                    "upLink": {
                        "start": 1959.900,
                        "end": 1979.700
                    },
                    "downLink": {
                        "start": 2149.900,
                        "end": 2169.70
                    }
                },
                "technology": [
                    "UMTS",
                    "LTE"
                ],
                "source": [
                    {
                        "name": "Finnish Transport and Communications Agency - Traficom",
                        "url": "https://www.traficom.fi/en/communications/communications-networks/frequencies-and-license-holders-public-mobile-networks"
                    }
                ]
            }
        ]
    },
    {
        "band": 7,
        "providers": [
            {
                "provider": {
                    "name": "DNA",
                    "longName": "DNA FI",
                    "homePage": "https://www.dna.fi",
                    "backgroundColor": "#ff007d",
                    "textColor": "white"
                },
                "frequency": {
                    "upLink": {
                        "start": 2500,
                        "end": 2520
                    },
                    "downLink": {
                        "start": 2620,
                        "end": 2640
                    }
                },
                "technology": [
                    "LTE"
                ],
                "source": [
                    {
                        "name": "Finnish Transport and Communications Agency - Traficom",
                        "url": "https://www.traficom.fi/en/communications/communications-networks/frequencies-and-license-holders-public-mobile-networks"
                    }
                ]
            },
            {
                "provider": {
                    "name": "Telia",
                    "longName": "Telia FI",
                    "homePage": "https://www.telia.fi",
                    "backgroundColor": "#990ae3",
                    "textColor": "white"
                },
                "frequency": {
                    "upLink": {
                        "start": 2520,
                        "end": 2545
                    },
                    "downLink": {
                        "start": 2640,
                        "end": 2665
                    }
                },
                "technology": [
                    "LTE"
                ],
                "source": [
                    {
                        "name": "Finnish Transport and Communications Agency - Traficom",
                        "url": "https://www.traficom.fi/en/communications/communications-networks/frequencies-and-license-holders-public-mobile-networks"
                    }
                ]
            },
            {
                "provider": {
                    "name": "Elisa",
                    "longName": "Elisa",
                    "homePage": "https://www.elisa.fi",
                    "backgroundColor": "#0019af",
                    "textColor": "white"
                },
                "frequency": {
                    "upLink": {
                        "start": 2545,
                        "end": 2570
                    },
                    "downLink": {
                        "start": 2665,
                        "end": 2690
                    }
                },
                "technology": [
                    "LTE"
                ],
                "source": [
                    {
                        "name": "Finnish Transport and Communications Agency - Traficom",
                        "url": "https://www.traficom.fi/en/communications/communications-networks/frequencies-and-license-holders-public-mobile-networks"
                    }
                ]
            }
        ]
    },
    {
        "band": 38,
        "providers": [
            {
                "provider": {
                    "name": "Elisa",
                    "longName": "Elisa",
                    "homePage": "https://www.elisa.fi",
                    "backgroundColor": "#0019af",
                    "textColor": "white"
                },
                "frequency": {
                    "upLink": {
                        "start": 2570,
                        "end": 2620
                    },
                    "downLink": {
                        "start": 2570,
                        "end": 2620
                    }
                },
                "technology": [
                    "LTE"
                ],
                "source": [
                    {
                        "name": "Finnish Transport and Communications Agency - Traficom",
                        "url": "https://www.traficom.fi/en/communications/communications-networks/frequencies-and-license-holders-public-mobile-networks"
                    }
                ]
            }
        ]
    },
    {
        "band": 78,
        "providers": [
            {
                "provider": {
                    "name": "Telia",
                    "longName": "Telia FI",
                    "homePage": "https://www.telia.fi",
                    "backgroundColor": "#990ae3",
                    "textColor": "white"
                },
                "frequency": {
                    "upLink": {
                        "start": 3410,
                        "end": 3540
                    },
                    "downLink": {
                        "start": 3410,
                        "end": 3540
                    }
                },
                "valid": {
                    "start": "2019-01-01",
                    "end": "2033-12-31"
                },
                "technology": ["NR"],
                "source": [
                    {
                        "name": "Finnish Transport and Communications Agency - Traficom",
                        "url": "https://www.traficom.fi/en/communications/communications-networks/frequencies-and-license-holders-public-mobile-networks"
                    }
                ]
            },
            {
                "provider": {
                    "name": "Elisa",
                    "longName": "Elisa",
                    "homePage": "https://www.elisa.fi",
                    "backgroundColor": "#0019af",
                    "textColor": "white"
                },
                "frequency": {
                    "upLink": {
                        "start": 3540,
                        "end": 3670
                    },
                    "downLink": {
                        "start": 3540,
                        "end": 3670
                    }
                },
                "valid": {
                    "start": "2019-01-01",
                    "end": "2033-12-31"
                },
                "technology": ["NR"],
                "source": [
                    {
                        "name": "Finnish Transport and Communications Agency - Traficom",
                        "url": "https://www.traficom.fi/en/communications/communications-networks/frequencies-and-license-holders-public-mobile-networks"
                    }
                ]
            },
            {
                "provider": {
                    "name": "DNA",
                    "longName": "DNA FI",
                    "homePage": "https://www.dna.fi",
                    "backgroundColor": "#ff007d",
                    "textColor": "white"
                },
                "frequency": {
                    "upLink": {
                        "start": 3670,
                        "end": 3800
                    },
                    "downLink": {
                        "start": 3670,
                        "end": 3800
                    }
                },
                "valid": {
                    "start": "2019-01-01",
                    "end": "2033-12-31"
                },
                "technology": ["NR"],
                "source": [
                    {
                        "name": "Finnish Transport and Communications Agency - Traficom",
                        "url": "https://www.traficom.fi/en/communications/communications-networks/frequencies-and-license-holders-public-mobile-networks"
                    }
                ]
            }
        ]
    },
    {
        "band": 258,
        "providers": [
            {
                "provider": {
                    "name": "Elisa",
                    "longName": "Elisa",
                    "homePage": "https://www.elisa.fi",
                    "backgroundColor": "#0019af",
                    "textColor": "white"
                },
                "frequency": {
                    "downLink": {
                        "start": 25100,
                        "end": 25900
                    }
                },
                "valid": {
                    "start": "2020-06-01",
                    "end": "2033-12-31"
                },
                "technology": ["NR"],
                "source": [
                    {
                        "name": "Finnish Transport and Communications Agency - Traficom",
                        "url": "https://www.traficom.fi/en/news/5g-spectrum-auction-has-ended"
                    }
                ]
            },
            {
                "provider": {
                    "name": "Telia",
                    "longName": "Telia FI",
                    "homePage": "https://www.telia.fi",
                    "backgroundColor": "#990ae3",
                    "textColor": "white"
                },
                "frequency": {
                    "downLink": {
                        "start": 25900,
                        "end": 26700
                    }
                },
                "valid": {
                    "start": "2020-06-01",
                    "end": "2033-12-31"
                },
                "technology": ["NR"],
                "source": [
                    {
                        "name": "Finnish Transport and Communications Agency - Traficom",
                        "url": "https://www.traficom.fi/en/news/5g-spectrum-auction-has-ended"
                    }
                ]
            },
            {
                "provider": {
                    "name": "DNA",
                    "longName": "DNA FI",
                    "homePage": "https://www.dna.fi",
                    "backgroundColor": "#ff007d",
                    "textColor": "white"
                },
                "frequency": {
                    "downLink": {
                        "start": 26700,
                        "end": 27500
                    }
                },
                "valid": {
                    "start": "2020-06-01",
                    "end": "2033-12-31"
                },
                "technology": ["NR"],
                "source": [
                    {
                        "name": "Finnish Transport and Communications Agency - Traficom",
                        "url": "https://www.traficom.fi/en/news/5g-spectrum-auction-has-ended"
                    }
                ]
            }
        ]
    }
]